<?xml version="1.0" encoding="UTF-8"?>
<session version="1.0">
<refactoring comment="Rename method &apos;com.nodesoftware.elycin.sab.BanManager.InsertBanInfo(...)&apos; to &apos;insertBanInfo&apos;&#x0D;&#x0A;- Original project: &apos;ServerAsyncBans&apos;&#x0D;&#x0A;- Original element: &apos;com.nodesoftware.elycin.sab.BanManager.InsertBanInfo(...)&apos;&#x0D;&#x0A;- Renamed element: &apos;com.nodesoftware.elycin.sab.BanManager.insertBanInfo(...)&apos;&#x0D;&#x0A;- Update references to refactored element" delegate="false" deprecate="false" description="Rename method &apos;InsertBanInfo&apos;" flags="589830" id="org.eclipse.jdt.ui.rename.method" input="/src&lt;com.nodesoftware.elycin.sab{BanManager.java[BanManager~InsertBanInfo~QString;~QString;" name="insertBanInfo" references="true" stamp="1385311554199" version="1.0"/>
</session>